…
11              Georgia  GA         South    9920000   376
12               Hawaii  HI          West    1360301     7
13                Idaho  ID          West    1567582    12
14             Illinois  IL North Central   12830632   364
15              Indiana  IN North Central    6483802   142
16                 Iowa  IA North Central    3046355    21
17               Kansas  KS North Central    2853118    63
18             Kentucky  KY         South    4339367   116
...
```
```{r, eval = FALSE, echo = FALSE}
as_tibble(murders)
```
```
# A tibble: 51 x 5
   state                abb   region    population total
   <chr>                <chr> <fct>          <dbl> <dbl>
 1 Alabama              AL    South        4779736   135
 2 Alaska               AK    West          710231    19
 3 Arizona              AZ    West         6392017   232
 4 Arkansas             AR    South        2915918    93
 5 California           CA    West        37253956  1257
 6 Colorado             CO    West         5029196    65
 7 Connecticut          CT    Northeast    3574097    97
 8 Delaware             DE    South         897934    38
 9 District of Columbia DC    South         601723    99
10 Florida              FL    South       19687653   669
# … with 41 more rows
```
…
